"Nº de instalação","CPF do titular da conta","Data de nascimento do titular da conta","E-mail que você usa com maior frequencia","Nº do Celular","senha","Primeiro nome","Segundo nome","id"
"22556533","04758485941","","dgbedin@gmail.com","","pagueverde","Diogo","Bedin","200"
"3186814","9813129930","35473","felipegiacomini11@gmail.com","4896861696","pagueverde","Felipe","Giacomini","131"
"48273289","2466179938","28840","arq.sheilacav@gmail.com","4896597657","193828","samuel","santos","139"
"3117766","74034006072","27369","contato@4self.com.br","4891644878","351614","Tiago","Lameira","151"
"46598300","2342560958","28811","sarinha1778@gmail.com","(48)84635277","SARAMELINHO","JUSSARA","MELO","120"
"8534276","6602107976","32367","camilarosa1988@yahoo.com.br","4896035170","89coisas","camila","rosa","124"
"28093080","2014206945","28249","isonir@hotmail.com","4796022914","pagueverde","ISONIR","SEBOLD","215"
"49713088","31919192875","30531","emailpriscila@yahoo.com.br","(48) 98548881","ryrm29","Priscila","Resende","92"
"50006000","6709942945","32786","samanta_martins15@hotmail.com","(48)84438429","pagueverde","Samanta","Saldano","97"
"30107381","03434033904","29926","sohlyta@bol.com.br","(47) 9929-2693","sol123","solange","Kirschner","219"
"50536882","8843895966","1993-11-10","willian.matiola@gmail.com","(48) 9637-2814","pagueverde","Willian","","206"
"31424410","727.812.209-06","1969-10-21","criscorreasilva@gmail.com","",
"pagueverde","","","210"
"21418064","064.031.269-11","1990-02-12","leonardobatri@gmail.com","(48) 9957-3451","pagueverde","","","209"
"105899","344.994.589-00","1960-05-26 ","Jfsantos44@hotmail.com","","janetefs","Janete","Dos santos","255"
"47366577","048.152.879-29","1986-01-17","metallicoi@hotmail.com","(48) 9641-0059","pagueverde","","","155"
"8422117","292.538.539-72","1957-03-21","claricerk@hotmail.com","(47) 8851-4711","pagueverde","","","88"
"21850942","007.978.389-96","1981-09-07","d_valese@hotmail.com","(48) 3262-0231","pagueverde","","","183"
"1828797","044.119.579-22","1986-02-14","felipe_a_camargo@hotmail.com","(49) 3223-4931","pagueverde","","","220"
"29145849","818.194.719-34","1971-02-13","aboldt@terra.com.br","(47) 9192-1667","pagueverde","","","148"
"27182577","888.317.289-20","1974-01-15","afturnes@gmail.com","(48) 9946-7888","pagueverde","","","127"



