"Nº de instalação","CPF do titular da conta","Data de nascimento do titular da conta","E-mail que você usa com maior frequencia","Nº do Celular","senha","Primeiro nome","Segundo nome","id"
"10786805","019.205.659-06","1976-05-29","rodinei.wasen@gmail.com","(46) 9970-8317_","pagueverde","","","147"
"3726835","185.659.569-20","1949-11-25","mauriciograd@hotmail.com","(41) 9989-3238","pagueverde","","","102"
"65729196","027.770.899-06","1981-05-27","julianaeloy@hotmail.com","(41) 9164-3538","pagueverde","","","214"
